%YAML 1.1
%TAG !u! tag:unity3d.com,2011:
--- !u!114 &11400000
MonoBehaviour:
  m_ObjectHideFlags: 0
  m_CorrespondingSourceObject: {fileID: 0}
  m_PrefabInstance: {fileID: 0}
  m_PrefabAsset: {fileID: 0}
  m_GameObject: {fileID: 0}
  m_Enabled: 1
  m_EditorHideFlags: 0
  m_Script: {fileID: 11500000, guid: 99d404390ece6f349a21aa4157130dec, type: 3}
  m_Name: FastWeapon
  m_EditorClassIdentifier: 
  weaponPrefab: {fileID: 4539810545972188646, guid: 5c20f5c68b7638040a5c72e54bf2d9da, type: 3}
  weaponName: FastWeapon
  sprite: {fileID: 0}
  description: Casual pew-pew
