%YAML 1.1
%TAG !u! tag:unity3d.com,2011:
--- !u!1045 &1
EditorBuildSettings:
  m_ObjectHideFlags: 0
  serializedVersion: 2
  m_Scenes:
  - enabled: 1
    path: Assets/Task_3/Scenes/Task_3_Menu.unity
    guid: faad23cdbb870b4459b0dea56c76f9ae
  - enabled: 1
    path: Assets/Task_3/Scenes/Task_3_Game.unity
    guid: 1cf72a3480cb5434c84fe0ac2ad454c0
  m_configObjects: {}
