%YAML 1.1
%TAG !u! tag:unity3d.com,2011:
--- !u!114 &11400000
MonoBehaviour:
  m_ObjectHideFlags: 0
  m_CorrespondingSourceObject: {fileID: 0}
  m_PrefabInstance: {fileID: 0}
  m_PrefabAsset: {fileID: 0}
  m_GameObject: {fileID: 0}
  m_Enabled: 1
  m_EditorHideFlags: 0
  m_Script: {fileID: 11500000, guid: 0fb1166574cce674e81830fe9fc5cd9f, type: 3}
  m_Name: O
  m_EditorClassIdentifier: 
  Name: O
  ConnectedLines:
  - {fileID: 11400000, guid: aa356db31dcd43441962e7b3c5003661, type: 2}
  ConnectedStations:
  - {fileID: 11400000, guid: c81f4d64e7efb4141a5d1e64b6b770d2, type: 2}
  prevStation: {fileID: 0}
